{
    "KPlugin": {
        "BugReportUrl": "https://bugs.kde.org/enter_bug.cgi?product=systemsettings&component=kcm_deviceautomounter",
        "Description": "Configure automatic mounting of disks and volumes",
        "Description[bg]": "Конфигуриране на автоматично монтиране на дискове и дялове",
        "Description[ca@valencia]": "Configura el muntatge automàtic de discs i volums",
        "Description[ca]": "Configura el muntatge automàtic de discos i volums",
        "Description[en_GB]": "Configure automatic mounting of disks and volumes",
        "Description[eo]": "Agordi aŭtomatan muntadon de diskoj kaj datumportiloj",
        "Description[es]": "Configurar el montaje automático de discos y volúmenes",
        "Description[fr]": "Configurer le montage automatique des disques et des volumes",
        "Description[ia]": "Configura le montar automatic de discos e volumines",
        "Description[it]": "Configura il montaggio automatico di dischi e volumi",
        "Description[ka]": "დისკების და ტომების ავტომატური მიმაგრების მორგება",
        "Description[nl]": "Automatisch aankoppelen van schijven en volumes configureren",
        "Description[nn]": "Set opp automatisk montering av diskar og lagringsmedium",
        "Description[sl]": "Konfiguriraj samodejni priklop diskov in skupin diskov",
        "Description[tr]": "Disklerin ve bölümlerinin otomatik bağlanmasını yapılandırın",
        "Description[uk]": "Налаштувати автоматичне монтування дисків та томів",
        "Description[x-test]": "xxConfigure automatic mounting of disks and volumesxx",
        "Icon": "drive-removable-media",
        "Name": "Device Auto-Mount",
        "Name[bg]": "Автоматично монтиране на устройства",
        "Name[ca@valencia]": "Muntatge automàtic de dispositius",
        "Name[ca]": "Muntatge automàtic de dispositius",
        "Name[de]": "Geräte automatisch einhängen",
        "Name[en_GB]": "Device Auto-Mount",
        "Name[eo]": "Aŭtomata muntado de aparato",
        "Name[es]": "Montaje automático de dispositivos",
        "Name[fr]": "Montage automatique du périphérique",
        "Name[ia]": "Montar automatic de dispositivo",
        "Name[it]": "Montaggio automatico dispositivo",
        "Name[ka]": "მოწყობილობის ავტომატური მიმაგრება",
        "Name[nl]": "Automatisch aankoppelen van apparaat",
        "Name[nn]": "Automatisk einingsmontering",
        "Name[sl]": "Samodejni priklop naprave",
        "Name[tr]": "Aygıtı Otomatik Bağla",
        "Name[uk]": "Автоматичне монтування пристроїв",
        "Name[x-test]": "xxDevice Auto-Mountxx"
    },
    "X-DocPath": "kcontrol/solid-device-automounter/index.html",
    "X-KDE-Keywords": "Automount,Mount,Disk,Disks,Removable,Device,Devices,Automatic",
    "X-KDE-Keywords[ar]": "ضم,إزالة,أجهزة,آلي",
    "X-KDE-Keywords[ast]": "Montar,Montaxe,Estrayer,Estraición,Estrayible,Preséu,Preseos",
    "X-KDE-Keywords[az]": "Mount,Removable,Devices,Automatic,Qoşulma,Çıxarılabilən,Cihazlar,Avtomatik",
    "X-KDE-Keywords[ca@valencia]": "Muntatge,Extraïble,Dispositius,Automàtic",
    "X-KDE-Keywords[ca]": "Muntatge,Extraïble,Dispositius,Automàtic",
    "X-KDE-Keywords[cs]": "Připojení,Odpojitelné,Zařízení,Automatické",
    "X-KDE-Keywords[da]": "Montering,flytbare,enheder,automatisk",
    "X-KDE-Keywords[de]": "Automatisches Einhängen von Wechselmedien,Wechselmedien,Speichermedien",
    "X-KDE-Keywords[el]": "Προσάρτηση,αφαιρούμενες,συσκευές,αυτόματη",
    "X-KDE-Keywords[en_GB]": "Mount,Removable,Devices,Automatic",
    "X-KDE-Keywords[es]": "Montar,Extraíble,Dispositivos,Automático",
    "X-KDE-Keywords[et]": "Eemaldatavad seadmed,seadmed,automaatne,ühendamine",
    "X-KDE-Keywords[eu]": "muntatu,aldagarri,gailuak,automatikoa",
    "X-KDE-Keywords[fi]": "Liitä,Liittäminen,Irrotettava,Laitteet,Automaattinen",
    "X-KDE-Keywords[fr]": "Monter, Amovible, Périphériques, Automatique",
    "X-KDE-Keywords[gl]": "Montar,Extraíbel,Dispositivo,Automático",
    "X-KDE-Keywords[hu]": "Mount,Cserélhető,Eszközök,Automatikus",
    "X-KDE-Keywords[ia]": "Montar,Removibile,Dispositivos,Automatic",
    "X-KDE-Keywords[id]": "Mount,Dapat dilepas,Perangkat,Otomatis",
    "X-KDE-Keywords[it]": "Montaggio,rimovibile,dispositivi,automatico",
    "X-KDE-Keywords[ko]": "Mount,Removable,Devices,Automatic,마운트,자동,이동식,장치",
    "X-KDE-Keywords[lt]": "Prijungti,Keičiamieji,Įrenginiai,Automatiškai,keiciamieji,irenginiai,automatiskai",
    "X-KDE-Keywords[nl]": "Aankoppelen,verwijderbaar,apparaten,automatisch",
    "X-KDE-Keywords[nn]": "montering,flyttbar,minnepinne,minnepenn,einingar,automatisk",
    "X-KDE-Keywords[pa]": "ਮਾਊਂਟ,ਹਟਾਉਣਯੋਗ,ਡਿਵਾਈਸ,ਆਟੋਮੈਟਿਕ,ਆਪਣੇ-ਆਪ,ਆਟੋਮੈਟਿਕ",
    "X-KDE-Keywords[pl]": "Montowanie,Wymienne,Urządzenia,Automatycznie",
    "X-KDE-Keywords[pt]": "Montagem,Removível,Dispositivos,Automática",
    "X-KDE-Keywords[pt_BR]": "Montagem,Removível,Automática,Dispositivos",
    "X-KDE-Keywords[ro]": "Montează,Amovibil,Dispozitive,Automat",
    "X-KDE-Keywords[ru]": "Mount,Removable,Devices,Automatic,подключение,внешние,носители,автоматическое,переносные,съёмные,съемные,устройства,монтирование",
    "X-KDE-Keywords[sk]": "Pripojiť,Vymeniteľný,Zariadenia,Automaticky",
    "X-KDE-Keywords[sl]": "priklapljanje,priklop,odstranljivo,odstranljive,naprave,samodejno,avtomatično",
    "X-KDE-Keywords[sr@ijekavian]": "Mount,Removable,Devices,Automatic,монтирање,уклоњив,уређај,аутоматски",
    "X-KDE-Keywords[sr@ijekavianlatin]": "Mount,Removable,Devices,Automatic,montiranje,uklonjiv,uređaj,automatski",
    "X-KDE-Keywords[sr@latin]": "Mount,Removable,Devices,Automatic,montiranje,uklonjiv,uređaj,automatski",
    "X-KDE-Keywords[sr]": "Mount,Removable,Devices,Automatic,монтирање,уклоњив,уређај,аутоматски",
    "X-KDE-Keywords[sv]": "Montera,Flyttbar,Enheter,Automatisk",
    "X-KDE-Keywords[ta]": "Mount,Removable,Devices,Automatic,ஏற்று,தானியங்கி, தானியக்க,கழற்றக்கூடிய,சாதனங்கள்,ஏற்றம்",
    "X-KDE-Keywords[tr]": "Bağla,Çıkarılabilir,Aygıtlar,Otomatik",
    "X-KDE-Keywords[uk]": "Mount,Removable,Devices,Automatic,монтування,портативний,змінний,пристрій,пристрої,автоматично,автоматичне",
    "X-KDE-Keywords[vi]": "Mount,Removable,Devices,Automatic,gắn kết,gắn ngoài,thiết bị,tự động",
    "X-KDE-Keywords[x-test]": "xxMountxx,xxRemovablexx,xxDevicesxx,xxAutomaticxx",
    "X-KDE-Keywords[zh_CN]": "Mount,Removable,Devices,Automatic,挂载,移动,设备,自动",
    "X-KDE-Keywords[zh_TW]": "Mount,Removable,Devices,Automatic",
    "X-KDE-System-Settings-Parent-Category": "removable-storage"
}
